{"data": [{"ann\u00e9e_publication": 2023, "code_region": "27"}, {"ann\u00e9e_publication": 2023, "code_region": "84"}, {"ann\u00e9e_publication": 2023, "code_region": "32"}, {"ann\u00e9e_publication": 2023, "code_region": "75"}, {"ann\u00e9e_publication": 2023, "code_region": "28"}, {"ann\u00e9e_publication": 2023, "code_region": "84"}, {"ann\u00e9e_publication": 2023, "code_region": "32"}, {"ann\u00e9e_publication": 2023, "code_region": "44"}, {"ann\u00e9e_publication": 2023, "code_region": "84"}, {"ann\u00e9e_publication": 2023, "code_region": "84"}, {"ann\u00e9e_publication": 2023, "code_region": "84"}, {"ann\u00e9e_publication": 2023, "code_region": "76"}, {"ann\u00e9e_publication": 2023, "code_region": "32"}, {"ann\u00e9e_publication": 2023, "code_region": "28"}, {"ann\u00e9e_publication": 2023, "code_region": "76"}, {"ann\u00e9e_publication": 2023, "code_region": "76"}, {"ann\u00e9e_publication": 2023, "code_region": "76"}, {"ann\u00e9e_publication": 2023, "code_region": "28"}, {"ann\u00e9e_publication": 2023, "code_region": "24"}, {"ann\u00e9e_publication": 2023, "code_region": "75"}, {"ann\u00e9e_publication": 2023, "code_region": "44"}, {"ann\u00e9e_publication": 2023, "code_region": "84"}, {"ann\u00e9e_publication": 2023, "code_region": "93"}, {"ann\u00e9e_publication": 2023, "code_region": "27"}, {"ann\u00e9e_publication": 2023, "code_region": "84"}, {"ann\u00e9e_publication": 2023, "code_region": "76"}, {"ann\u00e9e_publication": 2023, "code_region": "32"}, {"ann\u00e9e_publication": 2023, "code_region": "28"}, {"ann\u00e9e_publication": 2023, "code_region": "93"}, {"ann\u00e9e_publication": 2023, "code_region": "84"}, {"ann\u00e9e_publication": 2023, "code_region": "44"}, {"ann\u00e9e_publication": 2023, "code_region": "84"}, {"ann\u00e9e_publication": 2023, "code_region": "52"}, {"ann\u00e9e_publication": 2023, "code_region": "75"}, {"ann\u00e9e_publication": 2023, "code_region": "32"}, {"ann\u00e9e_publication": 2023, "code_region": "84"}, {"ann\u00e9e_publication": 2023, "code_region": "44"}, {"ann\u00e9e_publication": 2023, "code_region": "24"}, {"ann\u00e9e_publication": 2023, "code_region": "44"}, {"ann\u00e9e_publication": 2023, "code_region": "44"}, {"ann\u00e9e_publication": 2023, "code_region": "27"}, {"ann\u00e9e_publication": 2022, "code_region": "76"}, {"ann\u00e9e_publication": 2022, "code_region": "52"}, {"ann\u00e9e_publication": 2022, "code_region": "24"}, {"ann\u00e9e_publication": 2022, "code_region": "11"}, {"ann\u00e9e_publication": 2022, "code_region": "52"}, {"ann\u00e9e_publication": 2021, "code_region": "27"}, {"ann\u00e9e_publication": 2021, "code_region": "93"}, {"ann\u00e9e_publication": 2021, "code_region": "44"}, {"ann\u00e9e_publication": 2021, "code_region": "44"}, {"ann\u00e9e_publication": 2021, "code_region": "93"}, {"ann\u00e9e_publication": 2021, "code_region": "24"}, {"ann\u00e9e_publication": 2021, "code_region": "75"}, {"ann\u00e9e_publication": 2021, "code_region": "04"}, {"ann\u00e9e_publication": 2020, "code_region": "24"}, {"ann\u00e9e_publication": 2020, "code_region": "11"}, {"ann\u00e9e_publication": 2020, "code_region": "11"}, {"ann\u00e9e_publication": 2020, "code_region": "75"}, {"ann\u00e9e_publication": 2020, "code_region": "27"}, {"ann\u00e9e_publication": 2019, "code_region": "44"}, {"ann\u00e9e_publication": 2018, "code_region": "53"}, {"ann\u00e9e_publication": 2018, "code_region": "94"}, {"ann\u00e9e_publication": 2023, "code_region": "44"}, {"ann\u00e9e_publication": 2023, "code_region": "94"}, {"ann\u00e9e_publication": 2023, "code_region": "44"}, {"ann\u00e9e_publication": 2023, "code_region": "93"}, {"ann\u00e9e_publication": 2023, "code_region": "93"}, {"ann\u00e9e_publication": 2023, "code_region": "28"}, {"ann\u00e9e_publication": 2023, "code_region": "75"}, {"ann\u00e9e_publication": 2023, "code_region": "76"}, {"ann\u00e9e_publication": 2023, "code_region": "32"}, {"ann\u00e9e_publication": 2023, "code_region": "52"}, {"ann\u00e9e_publication": 2023, "code_region": "84"}, {"ann\u00e9e_publication": 2023, "code_region": "11"}, {"ann\u00e9e_publication": 2023, "code_region": "11"}, {"ann\u00e9e_publication": 2023, "code_region": "75"}, {"ann\u00e9e_publication": 2023, "code_region": "84"}, {"ann\u00e9e_publication": 2023, "code_region": "24"}, {"ann\u00e9e_publication": 2023, "code_region": "76"}, {"ann\u00e9e_publication": 2023, "code_region": "52"}, {"ann\u00e9e_publication": 2023, "code_region": "52"}, {"ann\u00e9e_publication": 2023, "code_region": "28"}, {"ann\u00e9e_publication": 2023, "code_region": "75"}, {"ann\u00e9e_publication": 2023, "code_region": "28"}, {"ann\u00e9e_publication": 2023, "code_region": "11"}, {"ann\u00e9e_publication": 2023, "code_region": "53"}, {"ann\u00e9e_publication": 2023, "code_region": "93"}, {"ann\u00e9e_publication": 2023, "code_region": "75"}, {"ann\u00e9e_publication": 2023, "code_region": "27"}, {"ann\u00e9e_publication": 2023, "code_region": "24"}, {"ann\u00e9e_publication": 2023, "code_region": "27"}, {"ann\u00e9e_publication": 2023, "code_region": "28"}, {"ann\u00e9e_publication": 2023, "code_region": "28"}, {"ann\u00e9e_publication": 2023, "code_region": "28"}, {"ann\u00e9e_publication": 2023, "code_region": "75"}, {"ann\u00e9e_publication": 2023, "code_region": "27"}, {"ann\u00e9e_publication": 2023, "code_region": "94"}, {"ann\u00e9e_publication": 2023, "code_region": "76"}, {"ann\u00e9e_publication": 2023, "code_region": "52"}, {"ann\u00e9e_publication": 2023, "code_region": "93"}], "links": {"profile": "https://tabular-api.preprod.data.gouv.fr/api/resources/14dba482-41e3-4c54-b82a-d8c11d1d80eb/profile/", "swagger": "https://tabular-api.preprod.data.gouv.fr/api/resources/14dba482-41e3-4c54-b82a-d8c11d1d80eb/swagger/", "next": "https://tabular-api.preprod.data.gouv.fr/api/resources/14dba482-41e3-4c54-b82a-d8c11d1d80eb/data/?columns=ann\u00e9e_publication,code_region&page=2&page_size=100", "prev": null}, "meta": {"page": 1, "page_size": 100, "total": 1806}}
